<svg width="44" height="44" viewBox="0 0 44 44" fill="none" xmlns="http://www.w3.org/2000/svg">
<path d="M9.16675 22H34.8334" stroke="white" stroke-width="3" stroke-linecap="round" stroke-linejoin="round"/>
<path d="M22 9.1665L34.8333 21.9998L22 34.8332" stroke="white" stroke-width="3" stroke-linecap="round" stroke-linejoin="round"/>
</svg>
